Library\Bee\artifacts\mvdfrm\Unity.2D.Animation.Runtime.ref.dll_B7961485F51EB435.mvfrm
Library\Bee\artifacts\mvdfrm\Unity.2D.Common.Runtime.ref.dll_E5EF155FD2A9DC14.mvfrm
Library\Bee\artifacts\mvdfrm\Unity.2D.IK.Runtime.ref.dll_8B0B10238FE8CA2B.mvfrm
Library\Bee\artifacts\mvdfrm\Unity.2D.PixelPerfect.ref.dll_3D64B16E5011B116.mvfrm
Library\Bee\artifacts\mvdfrm\Unity.2D.SpriteShape.Runtime.ref.dll_371409BB7D882EAD.mvfrm
Library\Bee\artifacts\mvdfrm\Unity.2D.Tilemap.Extras.ref.dll_A593BB962D7D7DA2.mvfrm
Library\Bee\artifacts\mvdfrm\Unity.Burst.ref.dll_14316E70964BB953.mvfrm
Library\Bee\artifacts\mvdfrm\Unity.InternalAPIEngineBridge.001.ref.dll_9031ADE18CD0CF4E.mvfrm
Library\Bee\artifacts\mvdfrm\Unity.Mathematics.ref.dll_14D1A32168A0AD59.mvfrm
Library\Bee\artifacts\mvdfrm\Unity.Services.Core.Analytics.ref.dll_D88AC28E7AE24D0A.mvfrm
Library\Bee\artifacts\mvdfrm\Unity.Services.Core.Environments.ref.dll_29C0C4FBB515A292.mvfrm
Library\Bee\artifacts\mvdfrm\Unity.Services.Core.ref.dll_8733AE466239FA82.mvfrm
Library\Bee\artifacts\mvdfrm\Unity.TextMeshPro.ref.dll_B085F143991618E6.mvfrm
Library\Bee\artifacts\mvdfrm\Unity.Timeline.ref.dll_54050F91DBE64E14.mvfrm
Library\Bee\artifacts\mvdfrm\Unity.VisualScripting.Core.ref.dll_27ACA245D8399F39.mvfrm
Library\Bee\artifacts\mvdfrm\Unity.VisualScripting.Flow.ref.dll_6EBD829C5A4313E8.mvfrm
Library\Bee\artifacts\mvdfrm\Unity.VisualScripting.State.ref.dll_F0190167D28F2F4D.mvfrm
Library\Bee\artifacts\mvdfrm\UnityEngine.UI.ref.dll_FAE6DBEA21006BE5.mvfrm
Library\Bee\artifacts\mvdfrm\UnityEngine.AccessibilityModule.dll_1012A0CE1847B15B.mvfrm
Library\Bee\artifacts\mvdfrm\UnityEngine.AIModule.dll_C64EF2F2C9F9402F.mvfrm
Library\Bee\artifacts\mvdfrm\UnityEngine.AndroidJNIModule.dll_3A15880901E11D6D.mvfrm
Library\Bee\artifacts\mvdfrm\UnityEngine.AnimationModule.dll_8E72DA192AC44141.mvfrm
Library\Bee\artifacts\mvdfrm\UnityEngine.ARModule.dll_7FC1B7F627169EF8.mvfrm
Library\Bee\artifacts\mvdfrm\UnityEngine.AssetBundleModule.dll_4D4588FD75EC7A8F.mvfrm
Library\Bee\artifacts\mvdfrm\UnityEngine.AudioModule.dll_B1237CBCBBEDE9F3.mvfrm
Library\Bee\artifacts\mvdfrm\UnityEngine.ClothModule.dll_180BD9B7960AC8D7.mvfrm
Library\Bee\artifacts\mvdfrm\UnityEngine.ClusterInputModule.dll_9A0B33A188AA2A37.mvfrm
Library\Bee\artifacts\mvdfrm\UnityEngine.ClusterRendererModule.dll_718D1B2BE1D0B1FA.mvfrm
Library\Bee\artifacts\mvdfrm\UnityEngine.CoreModule.dll_74917F63CA207666.mvfrm
Library\Bee\artifacts\mvdfrm\UnityEngine.CrashReportingModule.dll_B214B2D9518605BE.mvfrm
Library\Bee\artifacts\mvdfrm\UnityEngine.DirectorModule.dll_ECB234675ACE2E03.mvfrm
Library\Bee\artifacts\mvdfrm\UnityEngine.dll_D09BFC96137E264F.mvfrm
Library\Bee\artifacts\mvdfrm\UnityEngine.DSPGraphModule.dll_F20395D0CD2EFF24.mvfrm
Library\Bee\artifacts\mvdfrm\UnityEngine.GameCenterModule.dll_6462D223C8220E5E.mvfrm
Library\Bee\artifacts\mvdfrm\UnityEngine.GIModule.dll_5E8B3C0065A82849.mvfrm
Library\Bee\artifacts\mvdfrm\UnityEngine.GridModule.dll_52029B51E2750C5D.mvfrm
Library\Bee\artifacts\mvdfrm\UnityEngine.HotReloadModule.dll_0FBB981F05F75CC3.mvfrm
Library\Bee\artifacts\mvdfrm\UnityEngine.ImageConversionModule.dll_DD7F18DC63F569EE.mvfrm
Library\Bee\artifacts\mvdfrm\UnityEngine.IMGUIModule.dll_E9831C23821F7DD4.mvfrm
Library\Bee\artifacts\mvdfrm\UnityEngine.InputLegacyModule.dll_DE8AA41C0DDE3080.mvfrm
Library\Bee\artifacts\mvdfrm\UnityEngine.InputModule.dll_1799446D32260E97.mvfrm
Library\Bee\artifacts\mvdfrm\UnityEngine.JSONSerializeModule.dll_702A2A0A178311E5.mvfrm
Library\Bee\artifacts\mvdfrm\UnityEngine.LocalizationModule.dll_D857FDF420261D30.mvfrm
Library\Bee\artifacts\mvdfrm\UnityEngine.ParticleSystemModule.dll_0526FC25BF97914C.mvfrm
Library\Bee\artifacts\mvdfrm\UnityEngine.PerformanceReportingModule.dll_978A8C07381BF125.mvfrm
Library\Bee\artifacts\mvdfrm\UnityEngine.Physics2DModule.dll_DB18CA09CBC138D6.mvfrm
Library\Bee\artifacts\mvdfrm\UnityEngine.PhysicsModule.dll_115CCEB047CBA124.mvfrm
Library\Bee\artifacts\mvdfrm\UnityEngine.ProfilerModule.dll_1EF86D9DF427B510.mvfrm
Library\Bee\artifacts\mvdfrm\UnityEngine.RuntimeInitializeOnLoadManagerInitializerModule.dll_A5E0F4D0E631559F.mvfrm
Library\Bee\artifacts\mvdfrm\UnityEngine.ScreenCaptureModule.dll_8A11D78F2BEF3E47.mvfrm
Library\Bee\artifacts\mvdfrm\UnityEngine.SharedInternalsModule.dll_619057B1DB23653E.mvfrm
Library\Bee\artifacts\mvdfrm\UnityEngine.SpriteMaskModule.dll_4D8F44B3E991A3D8.mvfrm
Library\Bee\artifacts\mvdfrm\UnityEngine.SpriteShapeModule.dll_66A6B6582B8EB299.mvfrm
Library\Bee\artifacts\mvdfrm\UnityEngine.StreamingModule.dll_4307C7697A4BF87F.mvfrm
Library\Bee\artifacts\mvdfrm\UnityEngine.SubstanceModule.dll_1FB2DBB2C59EF68D.mvfrm
Library\Bee\artifacts\mvdfrm\UnityEngine.SubsystemsModule.dll_B83CAB15B7D98BEB.mvfrm
Library\Bee\artifacts\mvdfrm\UnityEngine.TerrainModule.dll_2BA34A1F1D89EA12.mvfrm
Library\Bee\artifacts\mvdfrm\UnityEngine.TerrainPhysicsModule.dll_05A1A4F8D8DA8BD9.mvfrm
Library\Bee\artifacts\mvdfrm\UnityEngine.TextCoreFontEngineModule.dll_F8E5EE35AC1A1D24.mvfrm
Library\Bee\artifacts\mvdfrm\UnityEngine.TextCoreTextEngineModule.dll_40CE24A73B9DD642.mvfrm
Library\Bee\artifacts\mvdfrm\UnityEngine.TextRenderingModule.dll_B3514999E326BE3C.mvfrm
Library\Bee\artifacts\mvdfrm\UnityEngine.TilemapModule.dll_CA9FB1A03546CB1B.mvfrm
Library\Bee\artifacts\mvdfrm\UnityEngine.TLSModule.dll_A2ECB0DCADD308F8.mvfrm
Library\Bee\artifacts\mvdfrm\UnityEngine.UIElementsModule.dll_BC7B0C7DBB05C7E2.mvfrm
Library\Bee\artifacts\mvdfrm\UnityEngine.UIElementsNativeModule.dll_0B5ACF085F341CF9.mvfrm
Library\Bee\artifacts\mvdfrm\UnityEngine.UIModule.dll_C1C29120264045DB.mvfrm
Library\Bee\artifacts\mvdfrm\UnityEngine.UmbraModule.dll_2BF828D549149566.mvfrm
Library\Bee\artifacts\mvdfrm\UnityEngine.UNETModule.dll_0737C74D172F6BDF.mvfrm
Library\Bee\artifacts\mvdfrm\UnityEngine.UnityAnalyticsModule.dll_24C66CEF6BBEE348.mvfrm
Library\Bee\artifacts\mvdfrm\UnityEngine.UnityConnectModule.dll_07CE429AD1AA581C.mvfrm
Library\Bee\artifacts\mvdfrm\UnityEngine.UnityCurlModule.dll_C18F7B4A9AD8332E.mvfrm
Library\Bee\artifacts\mvdfrm\UnityEngine.UnityTestProtocolModule.dll_D3E0FDBD6197DE9C.mvfrm
Library\Bee\artifacts\mvdfrm\UnityEngine.UnityWebRequestAssetBundleModule.dll_1EB6D7448D063C19.mvfrm
Library\Bee\artifacts\mvdfrm\UnityEngine.UnityWebRequestAudioModule.dll_0F86DFE5BE86BBBD.mvfrm
Library\Bee\artifacts\mvdfrm\UnityEngine.UnityWebRequestModule.dll_EF1E20866EEA046D.mvfrm
Library\Bee\artifacts\mvdfrm\UnityEngine.UnityWebRequestTextureModule.dll_3B65B3C9C18DDB32.mvfrm
Library\Bee\artifacts\mvdfrm\UnityEngine.UnityWebRequestWWWModule.dll_0B906A032B5D92AE.mvfrm
Library\Bee\artifacts\mvdfrm\UnityEngine.VehiclesModule.dll_64752DE6D4F7FD9E.mvfrm
Library\Bee\artifacts\mvdfrm\UnityEngine.VFXModule.dll_23CB494B84407265.mvfrm
Library\Bee\artifacts\mvdfrm\UnityEngine.VideoModule.dll_D62D01277E800598.mvfrm
Library\Bee\artifacts\mvdfrm\UnityEngine.VirtualTexturingModule.dll_2FE7837737E29D84.mvfrm
Library\Bee\artifacts\mvdfrm\UnityEngine.VRModule.dll_1494B7A5C7FACB53.mvfrm
Library\Bee\artifacts\mvdfrm\UnityEngine.WindModule.dll_EAE05A8C5B56F4CF.mvfrm
Library\Bee\artifacts\mvdfrm\UnityEngine.XRModule.dll_47537AAA513518B1.mvfrm
Library\Bee\artifacts\mvdfrm\Unity.Burst.Cecil.dll_BBE7E9DF50A4B74B.mvfrm
Library\Bee\artifacts\mvdfrm\Unity.Burst.Cecil.Mdb.dll_9447AC8CD553F548.mvfrm
Library\Bee\artifacts\mvdfrm\Unity.Burst.Cecil.Pdb.dll_AB9A24FC5408F6CB.mvfrm
Library\Bee\artifacts\mvdfrm\Unity.Burst.Cecil.Rocks.dll_4AE3DDDC565E0E4B.mvfrm
Library\Bee\artifacts\mvdfrm\Unity.Burst.Unsafe.dll_B379558B7DAAE6D8.mvfrm
Library\Bee\artifacts\mvdfrm\Unity.VisualScripting.Antlr3.Runtime.dll_32F3F9537B945860.mvfrm